spawns	name	room	loc_x	loc_y	loc_z	yaw	script	mood	animation_mood	respawn_time	spawn_objvar	special_room	special_room_script	room_objvar	room_objvar_name	room_objvar_value
s	s	s	f	f	f	f	s	s	s	i	s	s	s	s	s	s
object/mobile/tatooine_npc/nitra_vendallan.iff		livingroom1	-2.953	0.4083	-9.3071	-129	npc.static_quest.quest_convo			300	string:quest_table=nitra_vendallan					
rebel_recruiter		hall1	-6.2201	-3.9662	-6.589	90				300						
rebel_recruiter		world	69.6872	52	-5349.47	3				300						
object/mobile/dressed_commoner_fat_human_male_01.iff		livingroom1	-9.587	0.4083	0.5747	90	npe.make_invulnerable		explain	300						
commoner_rodian_female		livingroom1	0.4	0.4	0.7	127	conversation.c_prof_ent_anchorcontact			300						
