spawns	name	required_config	room	loc_x	loc_y	loc_z	yaw	script	mood	animation_mood	respawn_time	spawn_objvar	special_room	special_room_script	room_objvar	room_objvar_name	room_objvar_value
s	s	s[none]	s	f	f	f	f	s	s	s	i	s	s	s	s	s	s
jabba_enforcer			r1	-1.345849037	-5.255163193	9.080633163		theme_park.dungeon.generic_death			400	int:ai.defaultCalmBehavior=2					
jabba_enforcer			r1	-1.345849037	-5.255163193	9.080633163		theme_park.dungeon.generic_death			400	int:ai.defaultCalmBehavior=2					
jabba_enforcer			r2	-10.364851	-30.76693726	-27.73552704		theme_park.dungeon.generic_death			400	int:ai.defaultCalmBehavior=2					
jabba_enforcer			r2	-10.364851	-30.76693726	-27.73552704		theme_park.dungeon.generic_death			400	int:ai.defaultCalmBehavior=2					
jabba_enforcer			r2	-10.364851	-30.76693726	-27.73552704		theme_park.dungeon.generic_death			400	int:ai.defaultCalmBehavior=2					
jabba_swooper			r3	9.30025959	-40.5492363	-76.0153656		theme_park.dungeon.generic_death			400	int:ai.defaultCalmBehavior=2					
jabba_swooper			r3	9.30025959	-40.5492363	-76.0153656		theme_park.dungeon.generic_death			400	int:ai.defaultCalmBehavior=2					
jabba_swooper			r3	9.30025959	-40.5492363	-76.0153656		theme_park.dungeon.generic_death			400	int:ai.defaultCalmBehavior=2					
jabba_swooper			r3	9.30025959	-40.5492363	-76.0153656		theme_park.dungeon.generic_death			400	int:ai.defaultCalmBehavior=2					
jabba_swooper			r3	9.30025959	-40.5492363	-76.0153656		theme_park.dungeon.generic_death			400	int:ai.defaultCalmBehavior=2					
jabba_swoop_leader			r3	13.07846832	-40.51464844	-73.72912598		theme_park.dungeon.generic_death			400	int:ai.defaultCalmBehavior=1					
jabba_enforcer			r4	46.1268158	-46.97583389	-53.94105148		theme_park.dungeon.generic_death			400	int:ai.defaultCalmBehavior=2					
jabba_enforcer			r4	46.1268158	-46.97583389	-53.94105148		theme_park.dungeon.generic_death			400	int:ai.defaultCalmBehavior=2					
jabba_enforcer			r4	46.1268158	-46.97583389	-53.94105148		theme_park.dungeon.generic_death			400	int:ai.defaultCalmBehavior=2					
jabba_enforcer			r4	46.1268158	-46.97583389	-53.94105148		theme_park.dungeon.generic_death			400	int:ai.defaultCalmBehavior=2					
jabba_enforcer			r4	44.41864395	-46.09400177	-94.66312408		theme_park.dungeon.generic_death			400	int:ai.defaultCalmBehavior=2					
jabba_enforcer			r4	44.41864395	-46.09400177	-94.66312408		theme_park.dungeon.generic_death			400	int:ai.defaultCalmBehavior=2					
jabba_enforcer			r4	44.41864395	-46.09400177	-94.66312408		theme_park.dungeon.generic_death			400	int:ai.defaultCalmBehavior=2					
jabba_enforcer			r4	44.41864395	-46.09400177	-94.66312408		theme_park.dungeon.generic_death			400	int:ai.defaultCalmBehavior=2					
jabba_assassin			r4	41.11823654	-46.04864502	-99.68348694		theme_park.dungeon.generic_death			400	int:ai.defaultCalmBehavior=2					
jabba_assassin			r4	41.11823654	-46.04864502	-99.68348694		theme_park.dungeon.generic_death			400	int:ai.defaultCalmBehavior=2					
jabba_assassin			r5	-2.956749916	-45.53739929	-145.7202911		theme_park.dungeon.generic_death			400	int:ai.defaultCalmBehavior=2					
jabba_assassin			r5	-2.956749916	-45.53739929	-145.7202911		theme_park.dungeon.generic_death			400	int:ai.defaultCalmBehavior=2					
jabba_assassin			r5	-2.956749916	-45.53739929	-145.7202911		theme_park.dungeon.generic_death			400	int:ai.defaultCalmBehavior=2					
jabba_assassin			r5	-2.956749916	-45.53739929	-145.7202911		theme_park.dungeon.generic_death			400	int:ai.defaultCalmBehavior=2					
jabba_enforcer			r5	12.66164112	-44.98942566	-122.8635788		theme_park.dungeon.generic_death			400	int:ai.defaultCalmBehavior=2					
jabba_enforcer			r5	12.66164112	-44.98942566	-122.8635788		theme_park.dungeon.generic_death			400	int:ai.defaultCalmBehavior=2					
jabba_enforcer			r5	12.66164112	-44.98942566	-122.8635788		theme_park.dungeon.generic_death			400	int:ai.defaultCalmBehavior=2					
jabba_enforcer			r5	12.66164112	-44.98942566	-122.8635788		theme_park.dungeon.generic_death			400	int:ai.defaultCalmBehavior=2					
jabba_henchman			r5	49.9441452	-49.04848862	-132.6107635		theme_park.dungeon.generic_death			400	int:ai.defaultCalmBehavior=2					
jabba_henchman			r5	49.9441452	-49.04848862	-132.6107635		theme_park.dungeon.generic_death			400	int:ai.defaultCalmBehavior=2					
jabba_henchman			r5	49.9441452	-49.04848862	-132.6107635		theme_park.dungeon.generic_death			400	int:ai.defaultCalmBehavior=2					
jabba_henchman			r5	49.9441452	-49.04848862	-132.6107635		theme_park.dungeon.generic_death			400	int:ai.defaultCalmBehavior=2					
jabba_assassin			r5	61.84486008	-56.36604309	-171.9813995		theme_park.dungeon.generic_death			400	int:ai.defaultCalmBehavior=2					
jabba_assassin			r5	61.84486008	-56.36604309	-171.9813995		theme_park.dungeon.generic_death			400	int:ai.defaultCalmBehavior=2					
jabba_assassin			r5	61.84486008	-56.36604309	-171.9813995		theme_park.dungeon.generic_death			400	int:ai.defaultCalmBehavior=2					
jabba_assassin			r5	61.84486008	-56.36604309	-171.9813995		theme_park.dungeon.generic_death			400	int:ai.defaultCalmBehavior=2					
jabba_henchman			r5	31.21209335	-58.93854904	-171.1041565		theme_park.dungeon.generic_death			400	int:ai.defaultCalmBehavior=2					
jabba_henchman			r5	31.21209335	-58.93854904	-171.1041565		theme_park.dungeon.generic_death			400	int:ai.defaultCalmBehavior=2					
jabba_henchman			r5	31.21209335	-58.93854904	-171.1041565		theme_park.dungeon.generic_death			400	int:ai.defaultCalmBehavior=2					
jabba_henchman			r5	31.21209335	-58.93854904	-171.1041565		theme_park.dungeon.generic_death			400	int:ai.defaultCalmBehavior=2					
jabba_henchman			r5	31.21209335	-58.93854904	-171.1041565		theme_park.dungeon.generic_death			400	int:ai.defaultCalmBehavior=2					
jabba_henchman			r5	31.21209335	-58.93854904	-171.1041565		theme_park.dungeon.generic_death			400	int:ai.defaultCalmBehavior=2					
jabba_compound_guard			r6	-11.37588596	-64.60018158	-200.2161102		theme_park.dungeon.generic_death			600	int:ai.defaultCalmBehavior=2					
jabba_compound_guard			r6	-11.37588596	-64.60018158	-200.2161102		theme_park.dungeon.generic_death			600	int:ai.defaultCalmBehavior=2					
jabba_compound_guard			r6	-11.37588596	-64.60018158	-200.2161102		theme_park.dungeon.generic_death			600	int:ai.defaultCalmBehavior=2					
jabba_assassin			r6	-37.25444412	-66.93258667	-179.6917877		theme_park.dungeon.generic_death			400	int:ai.defaultCalmBehavior=2					
jabba_assassin			r6	-37.25444412	-66.93258667	-179.6917877		theme_park.dungeon.generic_death			400	int:ai.defaultCalmBehavior=2					
jabba_assassin			r6	-37.25444412	-66.93258667	-179.6917877		theme_park.dungeon.generic_death			400	int:ai.defaultCalmBehavior=2					
jabba_assassin			r6	-37.25444412	-66.93258667	-179.6917877		theme_park.dungeon.generic_death			400	int:ai.defaultCalmBehavior=2					
jabba_elite			r6	-35.25853348	-66.10852814	-183.3691254		theme_park.dungeon.generic_death			400	int:ai.defaultCalmBehavior=1					
jabba_compound_guard			r7	-14.55790806	-65.65888977	-213.5553741		theme_park.dungeon.generic_death			600	int:ai.defaultCalmBehavior=2					
jabba_compound_guard			r7	-14.55790806	-65.65888977	-213.5553741		theme_park.dungeon.generic_death			600	int:ai.defaultCalmBehavior=2					
jabba_compound_guard			r7	-14.55790806	-65.65888977	-213.5553741		theme_park.dungeon.generic_death			600	int:ai.defaultCalmBehavior=2					
jabba_compound_guard			r7	-14.55790806	-65.65888977	-213.5553741		theme_park.dungeon.generic_death			600	int:ai.defaultCalmBehavior=2					
jabba_compound_guard			r7	-6.056620121	-64.68177032	-238.9910278		theme_park.dungeon.generic_death			600	int:ai.defaultCalmBehavior=2					
jabba_compound_guard			r7	-6.056620121	-64.68177032	-238.9910278		theme_park.dungeon.generic_death			600	int:ai.defaultCalmBehavior=2					
jabba_compound_guard			r7	-6.056620121	-64.68177032	-238.9910278		theme_park.dungeon.generic_death			600	int:ai.defaultCalmBehavior=2					
jabba_compound_guard			r7	-6.056620121	-64.68177032	-238.9910278		theme_park.dungeon.generic_death			600	int:ai.defaultCalmBehavior=2					
jabba_compound_guard			r7	-23.98511696	-64.75653839	-250.6468201		theme_park.dungeon.generic_death			600	int:ai.defaultCalmBehavior=2					
jabba_compound_guard			r7	-23.98511696	-64.75653839	-250.6468201		theme_park.dungeon.generic_death			600	int:ai.defaultCalmBehavior=2					
jabba_compound_guard			r7	-23.98511696	-64.75653839	-250.6468201		theme_park.dungeon.generic_death			600	int:ai.defaultCalmBehavior=2					
jabba_compound_guard			r7	-23.98511696	-64.75653839	-250.6468201		theme_park.dungeon.generic_death			600	int:ai.defaultCalmBehavior=2					
jabba_compound_leader			r7	-21.53467941	-63.74970627	-256.3362732		theme_park.dungeon.generic_death			1200	int:ai.defaultCalmBehavior=1					
jabba_elite			r8	-66.14920807	-69.01168823	-185.4471283		theme_park.dungeon.generic_death			600	int:ai.defaultCalmBehavior=2					
jabba_elite			r8	-66.14920807	-69.01168823	-185.4471283		theme_park.dungeon.generic_death			600	int:ai.defaultCalmBehavior=2					
jabba_elite			r8	-66.14920807	-69.01168823	-185.4471283		theme_park.dungeon.generic_death			600	int:ai.defaultCalmBehavior=2					
jabba_elite			r8	-94.29183197	-73.4679184	-173.8470306		theme_park.dungeon.generic_death			600	int:ai.defaultCalmBehavior=2					
jabba_elite			r8	-94.29183197	-73.4679184	-173.8470306		theme_park.dungeon.generic_death			600	int:ai.defaultCalmBehavior=2					
jabba_elite			r8	-94.29183197	-73.4679184	-173.8470306		theme_park.dungeon.generic_death			600	int:ai.defaultCalmBehavior=2					
jabba_elite			r8	-94.29183197	-73.4679184	-173.8470306		theme_park.dungeon.generic_death			600	int:ai.defaultCalmBehavior=2					
jabba_elite			r8	-71.0657959	-70.66744232	-159.9441986		theme_park.dungeon.generic_death			600	int:ai.defaultCalmBehavior=2					
jabba_elite			r8	-71.0657959	-70.66744232	-159.9441986		theme_park.dungeon.generic_death			600	int:ai.defaultCalmBehavior=2					
jabba_compound_guard			r8	-90.75281525	-70.35004425	-124.3959808		theme_park.dungeon.generic_death			600	int:ai.defaultCalmBehavior=2					
jabba_compound_guard			r8	-90.75281525	-70.35004425	-124.3959808		theme_park.dungeon.generic_death			600	int:ai.defaultCalmBehavior=2					
jabba_compound_guard			r8	-90.75281525	-70.35004425	-124.3959808		theme_park.dungeon.generic_death			600	int:ai.defaultCalmBehavior=2					
jabba_compound_guard			r8	-90.75281525	-70.35004425	-124.3959808		theme_park.dungeon.generic_death			600	int:ai.defaultCalmBehavior=2					
jabba_elite			r8	-106.8868408	-68.56916046	-113.4157562		theme_park.dungeon.generic_death			600	int:ai.defaultCalmBehavior=1					
jabba_elite			r8	-74.50143433	-99.05541992	-155.7138977		theme_park.dungeon.generic_death			600	int:ai.defaultCalmBehavior=2					
jabba_elite			r8	-74.50143433	-99.05541992	-155.7138977		theme_park.dungeon.generic_death			600	int:ai.defaultCalmBehavior=2					
jabba_elite			r8	-74.50143433	-99.05541992	-155.7138977		theme_park.dungeon.generic_death			600	int:ai.defaultCalmBehavior=2					
jabba_elite			r8	-74.50143433	-99.05541992	-155.7138977		theme_park.dungeon.generic_death			600	int:ai.defaultCalmBehavior=2					
jabba_elite			r8	-91.63300323	-101.8963013	-143.8637238		theme_park.dungeon.generic_death			600	int:ai.defaultCalmBehavior=2					
jabba_elite			r8	-91.63300323	-101.8963013	-143.8637238		theme_park.dungeon.generic_death			600	int:ai.defaultCalmBehavior=2					
jabba_elite			r8	-91.63300323	-101.8963013	-143.8637238		theme_park.dungeon.generic_death			600	int:ai.defaultCalmBehavior=2					
jabba_elite			r8	-91.63300323	-101.8963013	-143.8637238		theme_park.dungeon.generic_death			600	int:ai.defaultCalmBehavior=2					
jabba_elite			r9	-70.06562805	-69.22769928	-92.40009308		theme_park.dungeon.generic_death			600	int:ai.defaultCalmBehavior=2					
jabba_elite			r9	-70.06562805	-69.22769928	-92.40009308		theme_park.dungeon.generic_death			600	int:ai.defaultCalmBehavior=2					
jabba_elite			r9	-70.06562805	-69.22769928	-92.40009308		theme_park.dungeon.generic_death			600	int:ai.defaultCalmBehavior=2					
jabba_compound_guard			r9	-59.63094711	-68.2727356	-102.6731796		theme_park.dungeon.generic_death			600	int:ai.defaultCalmBehavior=2					
jabba_compound_guard			r9	-59.63094711	-68.2727356	-102.6731796		theme_park.dungeon.generic_death			600	int:ai.defaultCalmBehavior=2					
jabba_compound_guard			r9	-59.63094711	-68.2727356	-102.6731796		theme_park.dungeon.generic_death			600	int:ai.defaultCalmBehavior=2					
jabba_compound_guard			r9	-59.63094711	-68.2727356	-102.6731796		theme_park.dungeon.generic_death			600	int:ai.defaultCalmBehavior=2					
jabba_elite			r9	-47.71918106	-69.23365021	-89.02626038		theme_park.dungeon.generic_death			600	int:ai.defaultCalmBehavior=2					
jabba_elite			r9	-47.71918106	-69.23365021	-89.02626038		theme_park.dungeon.generic_death			600	int:ai.defaultCalmBehavior=2					
jabba_elite			r9	-47.71918106	-69.23365021	-89.02626038		theme_park.dungeon.generic_death			600	int:ai.defaultCalmBehavior=2					
jabba_elite			r9	-43.78680038	-69.97840118	-104.9682999		theme_park.dungeon.generic_death			600	int:ai.defaultCalmBehavior=2					
jabba_elite			r9	-43.78680038	-69.97840118	-104.9682999		theme_park.dungeon.generic_death			600	int:ai.defaultCalmBehavior=2					
jabba_elite			r9	-43.78680038	-69.97840118	-104.9682999		theme_park.dungeon.generic_death			600	int:ai.defaultCalmBehavior=2					
jabba_elite			r9	-43.78680038	-69.97840118	-104.9682999		theme_park.dungeon.generic_death			600	int:ai.defaultCalmBehavior=2					
jabba_compound_guard			r9	-15.69215298	-69.02692413	-98.56394958		theme_park.dungeon.generic_death			600	int:ai.defaultCalmBehavior=2					
jabba_compound_guard			r9	-15.69215298	-69.02692413	-98.56394958		theme_park.dungeon.generic_death			600	int:ai.defaultCalmBehavior=2					
jabba_compound_guard			r9	-15.69215298	-69.02692413	-98.56394958		theme_park.dungeon.generic_death			600	int:ai.defaultCalmBehavior=2					
jabba_elite			r9	-29.28040123	-69.91281128	-108.8710938		theme_park.dungeon.generic_death			600	int:ai.defaultCalmBehavior=2					
jabba_elite			r9	-29.28040123	-69.91281128	-108.8710938		theme_park.dungeon.generic_death			600	int:ai.defaultCalmBehavior=2					
jabba_elite			r9	-29.28040123	-69.91281128	-108.8710938		theme_park.dungeon.generic_death			600	int:ai.defaultCalmBehavior=2					
jabba_elite			r9	-29.28040123	-69.91281128	-108.8710938		theme_park.dungeon.generic_death			600	int:ai.defaultCalmBehavior=2					
jabba_compound_guard			r10	-28.20291138	-79.73033905	-141.4008789		theme_park.dungeon.generic_death			600	int:ai.defaultCalmBehavior=2					
jabba_compound_guard			r10	-28.20291138	-79.73033905	-141.4008789		theme_park.dungeon.generic_death			600	int:ai.defaultCalmBehavior=2					
jabba_compound_guard			r10	-28.20291138	-79.73033905	-141.4008789		theme_park.dungeon.generic_death			600	int:ai.defaultCalmBehavior=2					
jabba_compound_guard			r10	-28.20291138	-79.73033905	-141.4008789		theme_park.dungeon.generic_death			600	int:ai.defaultCalmBehavior=2					
jabba_lieutenant			r11	-91.1869812	-101.0670776	-106.8053589		theme_park.dungeon.generic_death			1200	int:ai.defaultCalmBehavior=1					
jabba_elite			r11	-100.3192749	-100.8280945	-121.3702469		theme_park.dungeon.generic_death			600	int:ai.defaultCalmBehavior=2					
jabba_elite			r11	-100.3192749	-100.8280945	-121.3702469		theme_park.dungeon.generic_death			600	int:ai.defaultCalmBehavior=2					
jabba_elite			r11	-100.3192749	-100.8280945	-121.3702469		theme_park.dungeon.generic_death			600	int:ai.defaultCalmBehavior=2					
jabba_elite			r11	-93.20484924	-101.2804718	-113.4303741		theme_park.dungeon.generic_death			600	int:ai.defaultCalmBehavior=2					
jabba_elite			r11	-93.20484924	-101.2804718	-113.4303741		theme_park.dungeon.generic_death			600	int:ai.defaultCalmBehavior=2					
jabba_elite			r11	-93.20484924	-101.2804718	-113.4303741		theme_park.dungeon.generic_death			600	int:ai.defaultCalmBehavior=2					
jabba_elite			r11	-78.67502594	-100.8821335	-123.4961929		theme_park.dungeon.generic_death			600	int:ai.defaultCalmBehavior=2					
jabba_elite			r11	-78.67502594	-100.8821335	-123.4961929		theme_park.dungeon.generic_death			600	int:ai.defaultCalmBehavior=2					
jabba_elite			r11	-78.67502594	-100.8821335	-123.4961929		theme_park.dungeon.generic_death			600	int:ai.defaultCalmBehavior=2					
