component	engine
s	s
eng_bezelbok_kessel_runner	tieoppressor_engine_s01:
eng_corellian_cruiser_grade_mk1	tieoppressor_engine_s01:
eng_corellian_cruiser_grade_mk2	tieoppressor_engine_s01:
eng_corellian_deluxe_cruiser_grade_mk1	tieoppressor_engine_s01:
eng_crafted_incom_fusialthrust	tieoppressor_engine_s01:
eng_crafted_novaldex_eventhorizon	tieoppressor_engine_s01:
eng_crafted_qualdex_kyromaster	tieoppressor_engine_s01:
eng_cygnus_hd3	tieoppressor_engine_s01:
eng_cygnus_hd7	tieoppressor_engine_s01:
eng_cygnus_hd8	tieoppressor_engine_s01:
eng_cygnus_hd_5	tieoppressor_engine_s01:
eng_cygnus_hdx	tieoppressor_engine_s01:
eng_damorian_rx7	tieoppressor_engine_s01:
eng_freitek_dual_jet	tieoppressor_engine_s01:
eng_gallofree_advanced	tieoppressor_engine_s01:
eng_gallofree_jx2	tieoppressor_engine_s01:
eng_gallofree_jx3	tieoppressor_engine_s01:
eng_h17_singularity	tieoppressor_engine_s01:
eng_haor_chall_old_engine	tieoppressor_engine_s01:
eng_incom_advanced	tieoppressor_engine_s01:
eng_incom_advanced_fusialthrust	tieoppressor_engine_s01:
eng_incom_e16	tieoppressor_engine_s01:
eng_incom_elite	tieoppressor_engine_s01:
eng_incom_fusialthrust	tieoppressor_engine_s01:
eng_incom_fusialthrust_2	tieoppressor_engine_s01:
eng_incom_heavy_fusialthrust	tieoppressor_engine_s01:
eng_incom_improved_fusialthrust_2	tieoppressor_engine_s01:
eng_incom_light_fusialthrust	tieoppressor_engine_s01:
eng_koensayr_advanced	tieoppressor_engine_s01:
eng_koensayr_dual_small_ionjet	tieoppressor_engine_s01:
eng_koensayr_elite	tieoppressor_engine_s01:
eng_koensayr_enhanced_dual_small_ionjet	tieoppressor_engine_s01:
eng_koensayr_heavy_ionjet	tieoppressor_engine_s01:
eng_koensayr_ionjet	tieoppressor_engine_s01:
eng_koensayr_small_ionjet	tieoppressor_engine_s01:
eng_koensayr_tuned_small_ionjet	tieoppressor_engine_s01:
eng_kongar_defender	tieoppressor_engine_s01:
eng_kse_a2x	tieoppressor_engine_s01:
eng_kse_a5x	tieoppressor_engine_s01:
eng_kse_a7x	tieoppressor_engine_s01:
eng_kse_a8x	tieoppressor_engine_s01:
eng_kse_advanced	tieoppressor_engine_s01:
eng_kse_elite	tieoppressor_engine_s01:
eng_kse_improved_a2x	tieoppressor_engine_s01:
eng_kuat_a9x	tieoppressor_engine_s01:
eng_kuat_f31	tieoppressor_engine_s01:
eng_kuat_tc40	tieoppressor_engine_s01:
eng_mandal_advanced	tieoppressor_engine_s01:
eng_mandal_elite	tieoppressor_engine_s01:
eng_mandal_enhanced_heavy	tieoppressor_engine_s01:
eng_mandal_firestorm	tieoppressor_engine_s01:
eng_mandal_firestorm_2	tieoppressor_engine_s01:
eng_mandal_heavy	tieoppressor_engine_s01:
eng_mandal_x37_vandal	tieoppressor_engine_s01:
eng_mandal_x57_vandal	tieoppressor_engine_s01:
eng_mission_reward_imperial_cygnus_megadrive	tieoppressor_engine_s01:
eng_mission_reward_neutral_haor_chall_military	tieoppressor_engine_s01:
eng_mission_reward_neutral_mandal_inferno	tieoppressor_engine_s01:
eng_mission_reward_rebel_incom_military	tieoppressor_engine_s01:
eng_mk1	tieoppressor_engine_s01:
eng_mk2	tieoppressor_engine_s01:
eng_mk3	tieoppressor_engine_s01:
eng_mk4	tieoppressor_engine_s01:
eng_mk5	tieoppressor_engine_s01:
eng_moncal_charged_standard	tieoppressor_engine_s01:
eng_moncal_enhanced_light	tieoppressor_engine_s01:
eng_moncal_heavy	tieoppressor_engine_s01:
eng_moncal_ifs32	tieoppressor_engine_s01:
eng_moncal_ifs64	tieoppressor_engine_s01:
eng_moncal_improved_heavy	tieoppressor_engine_s01:
eng_moncal_light	tieoppressor_engine_s01:
eng_moncal_standard	tieoppressor_engine_s01:
eng_novaldex_advanced	tieoppressor_engine_s01:
eng_novaldex_eventhorizon	tieoppressor_engine_s01:
eng_novaldex_light_eventhorizon	tieoppressor_engine_s01:
eng_novaldex_singularity	tieoppressor_engine_s01:
eng_novaldex_x12	tieoppressor_engine_s01:
eng_novaldex_x6	tieoppressor_engine_s01:
eng_novaldex_x7	tieoppressor_engine_s01:
eng_novaldex_x9	tieoppressor_engine_s01:
eng_nubian_221	tieoppressor_engine_s01:
eng_nubian_221_racing_mod	tieoppressor_engine_s01:
eng_prototype	tieoppressor_engine_s01:
eng_qualdex_a10	tieoppressor_engine_s01:
eng_qualdex_a13	tieoppressor_engine_s01:
eng_qualdex_advanced	tieoppressor_engine_s01:
eng_qualdex_b10	tieoppressor_engine_s01:
eng_qualdex_elite	tieoppressor_engine_s01:
eng_qualdex_igt	tieoppressor_engine_s01:
eng_qualdex_kyromaster	tieoppressor_engine_s01:
eng_qualdex_small_kyromaster	tieoppressor_engine_s01:
eng_quantum_ion_drive	tieoppressor_engine_s01:
eng_rendili_demon_mk1	tieoppressor_engine_s01:
eng_rendili_elite	tieoppressor_engine_s01:
eng_rss_advanced	tieoppressor_engine_s01:
eng_rss_elite	tieoppressor_engine_s01:
eng_rss_imperial_skyrunner	tieoppressor_engine_s01:
eng_rss_imperial_skyrunner_2	tieoppressor_engine_s01:
eng_rss_imperial_skyrunner_3	tieoppressor_engine_s01:
eng_rss_imperial_skyrunner_4	tieoppressor_engine_s01:
eng_sds_imperial_1	tieoppressor_engine_s01:
eng_sds_imperial_2	tieoppressor_engine_s01:
eng_sds_limited_imperial_1	tieoppressor_engine_s01:
eng_seinar_ps56	tieoppressor_engine_s01:
eng_sfs_advanced	tieoppressor_engine_s01:
eng_sfs_elite	tieoppressor_engine_s01:
eng_sfs_imperial_1	tieoppressor_engine_s01:
eng_sfs_imperial_2	tieoppressor_engine_s01:
eng_sfs_imperial_3	tieoppressor_engine_s01:
eng_sfs_imperial_4	tieoppressor_engine_s01:
eng_sfs_imperial_5	tieoppressor_engine_s01:
eng_sfs_modified_imperial_3	tieoppressor_engine_s01:
eng_sfs_performance_imperial_1	tieoppressor_engine_s01:
eng_sfs_tuned_imperial_2	tieoppressor_engine_s01:
eng_sorosuub_l_337_ion_engine	tieoppressor_engine_s01:
eng_sorosuub_tuned_l_337_ion_engine	tieoppressor_engine_s01:
eng_sorosuub_u83r_ion_drive	tieoppressor_engine_s01:
eng_subpro_light_engines	tieoppressor_engine_s01:
eng_surronian_a2	tieoppressor_engine_s01:
eng_surronian_a25	tieoppressor_engine_s01:
eng_ubrikkian_n2	tieoppressor_engine_s01:
eng_reward_kuat_elite	tieoppressor_engine_s01:
eng_nova_01	tieoppressor_engine_s01:
eng_orion_01	tieoppressor_engine_s01:
collection_reward_engine_01_mk1	tieoppressor_engine_s01:
collection_reward_engine_01_mk2	tieoppressor_engine_s01:
collection_reward_engine_01_mk3	tieoppressor_engine_s01:
collection_reward_engine_01_mk4	tieoppressor_engine_s01:
collection_reward_engine_01_mk5	tieoppressor_engine_s01:
eng_t86_shooting_star	tieoppressor_engine_s01:
eng_kuat_m24	tieoppressor_engine_s01:
