spawns	name	room	loc_x	loc_y	loc_z	yaw	script	mood	animation_mood	respawn_time	spawn_objvar	special_room	special_room_script	room_objvar	room_objvar_name	room_objvar_value
s	s	s	f	f	f	f	s	s	s	i	s	s	s	s	s	s
mutant_bark_mite_hatchling		r1	-13.58056545	-4.341571331	-5.698585987		theme_park.dungeon.generic_death			600	int:ai.defaultCalmBehavior=2					
mutant_bark_mite_hatchling		r1	-13.58056545	-4.341571331	-5.698585987		theme_park.dungeon.generic_death			600	int:ai.defaultCalmBehavior=2					
mutant_bark_mite_hatchling		r1	-13.58056545	-4.341571331	-5.698585987		theme_park.dungeon.generic_death			600	int:ai.defaultCalmBehavior=2					
mutant_bark_mite_hatchling		r1	22.08051872	-26.72802544	-7.172896862		theme_park.dungeon.generic_death			600	int:ai.defaultCalmBehavior=2					
mutant_bark_mite_hatchling		r1	22.08051872	-26.72802544	-7.172896862		theme_park.dungeon.generic_death			600	int:ai.defaultCalmBehavior=2					
mutant_bark_mite_hatchling		r1	22.08051872	-26.72802544	-7.172896862		theme_park.dungeon.generic_death			600	int:ai.defaultCalmBehavior=2					
mutant_bark_mite_hatchling		r2	49.15400696	-48.7415657	-60.57906342		theme_park.dungeon.generic_death			600	int:ai.defaultCalmBehavior=2					
mutant_bark_mite_hatchling		r2	49.15400696	-48.7415657	-60.57906342		theme_park.dungeon.generic_death			600	int:ai.defaultCalmBehavior=2					
mutant_bark_mite_worker		r2	25.85153008	-42.5551033	-64.05337524		theme_park.dungeon.generic_death			600	int:ai.defaultCalmBehavior=1					
mutant_bark_mite_worker		r2	44.23813248	-47.09199524	-29.16382217		theme_park.dungeon.generic_death			600	int:ai.defaultCalmBehavior=2					
mutant_bark_mite_worker		r2	44.23813248	-47.09199524	-29.16382217		theme_park.dungeon.generic_death			600	int:ai.defaultCalmBehavior=2					
mutant_bark_mite_hatchling		r2	54.1036644	-68.21775818	-41.62472153		theme_park.dungeon.generic_death			600	int:ai.defaultCalmBehavior=2					
mutant_bark_mite_hatchling		r2	54.1036644	-68.21775818	-41.62472153		theme_park.dungeon.generic_death			600	int:ai.defaultCalmBehavior=2					
mutant_bark_mite_hatchling		r2	54.1036644	-68.21775818	-41.62472153		theme_park.dungeon.generic_death			600	int:ai.defaultCalmBehavior=2					
mutant_bark_mite_hatchling		r2	54.1036644	-68.21775818	-41.62472153		theme_park.dungeon.generic_death			600	int:ai.defaultCalmBehavior=2					
mutant_bark_mite_hatchling		r2	54.1036644	-68.21775818	-41.62472153		theme_park.dungeon.generic_death			600	int:ai.defaultCalmBehavior=2					
mutant_bark_mite_worker		r3	85.77083588	-62.82794189	-19.44040489		theme_park.dungeon.generic_death			600	int:ai.defaultCalmBehavior=2					
mutant_bark_mite_worker		r3	85.77083588	-62.82794189	-19.44040489		theme_park.dungeon.generic_death			600	int:ai.defaultCalmBehavior=2					
mutant_bark_mite_worker		r3	85.77083588	-62.82794189	-19.44040489		theme_park.dungeon.generic_death			600	int:ai.defaultCalmBehavior=2					
mutant_bark_mite_giant		r3	83.41676331	-68.52023315	-40.48664093		theme_park.dungeon.generic_death			600	int:ai.defaultCalmBehavior=1					
mutant_bark_mite_giant		r4	83.25458527	-76.66386414	-88.19688416		theme_park.dungeon.generic_death			600	int:ai.defaultCalmBehavior=2					
mutant_bark_mite_giant		r4	83.25458527	-76.66386414	-88.19688416		theme_park.dungeon.generic_death			600	int:ai.defaultCalmBehavior=2					
mutant_bark_mite_worker		r4	65.20628357	-76.2432785	-70.94300842		theme_park.dungeon.generic_death			600	int:ai.defaultCalmBehavior=2					
mutant_bark_mite_worker		r4	65.20628357	-76.2432785	-70.94300842		theme_park.dungeon.generic_death			600	int:ai.defaultCalmBehavior=2					
mutant_bark_mite_hatchling		r4	91.90744781	-76.15448761	-64.95516968		theme_park.dungeon.generic_death			600	int:ai.defaultCalmBehavior=2					
mutant_bark_mite_hatchling		r4	91.90744781	-76.15448761	-64.95516968		theme_park.dungeon.generic_death			600	int:ai.defaultCalmBehavior=2					
mutant_bark_mite_worker		r5	75.06087494	-46.35211182	-108.1551971		theme_park.dungeon.generic_death			600	int:ai.defaultCalmBehavior=1					
mutant_bark_mite_giant		r5	93.11245728	-46.51351929	-109.4127197		theme_park.dungeon.generic_death			600	int:ai.defaultCalmBehavior=2					
mutant_bark_mite_giant		r5	93.11245728	-46.51351929	-109.4127197		theme_park.dungeon.generic_death			600	int:ai.defaultCalmBehavior=2					
mutant_bark_mite_giant		r5	93.38263702	-66.15102386	-118.7609482		theme_park.dungeon.generic_death			600	int:ai.defaultCalmBehavior=2					
mutant_bark_mite_giant		r5	93.38263702	-66.15102386	-118.7609482		theme_park.dungeon.generic_death			600	int:ai.defaultCalmBehavior=2					
mutant_bark_mite_soldier		r5	96.1700592	-66.26824188	-108.5062866		theme_park.dungeon.generic_death			600	int:ai.defaultCalmBehavior=1					
mutant_bark_mite_worker		r6	55.88619232	-73.65333557	-108.3369675		theme_park.dungeon.generic_death			600	int:ai.defaultCalmBehavior=2					
mutant_bark_mite_worker		r6	55.88619232	-73.65333557	-108.3369675		theme_park.dungeon.generic_death			600	int:ai.defaultCalmBehavior=2					
mutant_bark_mite_worker		r6	55.88619232	-73.65333557	-108.3369675		theme_park.dungeon.generic_death			600	int:ai.defaultCalmBehavior=2					
mutant_bark_mite_giant		r7	76.84905243	-65.57919312	-141.3714752		theme_park.dungeon.generic_death			600	int:ai.defaultCalmBehavior=1					
mutant_bark_mite_hatchling		r8	125.6832199	-66.73545837	-108.7733536		theme_park.dungeon.generic_death			600	int:ai.defaultCalmBehavior=2					
mutant_bark_mite_hatchling		r8	125.6832199	-66.73545837	-108.7733536		theme_park.dungeon.generic_death			600	int:ai.defaultCalmBehavior=2					
mutant_bark_mite_hatchling		r8	125.6832199	-66.73545837	-108.7733536		theme_park.dungeon.generic_death			600	int:ai.defaultCalmBehavior=2					
mutant_bark_mite_hatchling		r8	125.6832199	-66.73545837	-108.7733536		theme_park.dungeon.generic_death			600	int:ai.defaultCalmBehavior=2					
mutant_bark_mite_soldier		r8	115.6299591	-67.14820862	-89.44378662		theme_park.dungeon.generic_death			600	int:ai.defaultCalmBehavior=1					
mutant_bark_mite_giant		r8	136.9188843	-66.14466095	-115.3044128		theme_park.dungeon.generic_death			600	int:ai.defaultCalmBehavior=1					
mutant_bark_mite_worker		r8	142.592865	-67.08347321	-92.06335449		theme_park.dungeon.generic_death			600	int:ai.defaultCalmBehavior=2					
mutant_bark_mite_worker		r8	142.592865	-67.08347321	-92.06335449		theme_park.dungeon.generic_death			600	int:ai.defaultCalmBehavior=2					
mutant_bark_mite_worker		r8	142.592865	-67.08347321	-92.06335449		theme_park.dungeon.generic_death			600	int:ai.defaultCalmBehavior=2					
mutant_bark_mite_soldier		r8	147.0394592	-66.99702454	-125.5911179		theme_park.dungeon.generic_death			600	int:ai.defaultCalmBehavior=1					
mutant_bark_mite_soldier		r9	162.344101	-66.85808563	-97.282341		theme_park.dungeon.generic_death			600	int:ai.defaultCalmBehavior=1					
mutant_bark_mite_queen		r9	188.0822906	-66.14566803	-102.5817108		theme_park.dungeon.generic_death			1800	int:ai.defaultCalmBehavior=1					
mutant_bark_mite_hatchling		r9	186.2275848	-65.9683609	-96.49252319		theme_park.dungeon.generic_death			600	int:ai.defaultCalmBehavior=2					
mutant_bark_mite_hatchling		r9	186.2275848	-65.9683609	-96.49252319		theme_park.dungeon.generic_death			600	int:ai.defaultCalmBehavior=2					
mutant_bark_mite_hatchling		r9	186.2275848	-65.9683609	-96.49252319		theme_park.dungeon.generic_death			600	int:ai.defaultCalmBehavior=2					
mutant_bark_mite_hatchling		r9	186.2275848	-65.9683609	-96.49252319		theme_park.dungeon.generic_death			600	int:ai.defaultCalmBehavior=2					
mutant_bark_mite_hatchling		r9	186.2275848	-65.9683609	-96.49252319		theme_park.dungeon.generic_death			600	int:ai.defaultCalmBehavior=2					
mutant_bark_mite_worker		r9	183.7726593	-65.73664093	-108.811821		theme_park.dungeon.generic_death			600	int:ai.defaultCalmBehavior=2					
mutant_bark_mite_worker		r9	183.7726593	-65.73664093	-108.811821		theme_park.dungeon.generic_death			600	int:ai.defaultCalmBehavior=2					
mutant_bark_mite_worker		r9	183.7726593	-65.73664093	-108.811821		theme_park.dungeon.generic_death			600	int:ai.defaultCalmBehavior=2					
mutant_bark_mite_hatchling		r10	51.65569305	-51.02204514	-89.27708435		theme_park.dungeon.generic_death			600	int:ai.defaultCalmBehavior=2					
mutant_bark_mite_hatchling		r10	51.65569305	-51.02204514	-89.27708435		theme_park.dungeon.generic_death			600	int:ai.defaultCalmBehavior=2					
mutant_bark_mite_worker		r10	49.26670837	-50.31642532	-93.69017029		theme_park.dungeon.generic_death			600	int:ai.defaultCalmBehavior=2					
mutant_bark_mite_worker		r10	49.26670837	-50.31642532	-93.69017029		theme_park.dungeon.generic_death			600	int:ai.defaultCalmBehavior=2					
mutant_bark_mite_hatchling		r11	91.11118317	-46.76744461	-142.5668945		theme_park.dungeon.generic_death			600	int:ai.defaultCalmBehavior=2					
mutant_bark_mite_hatchling		r11	91.11118317	-46.76744461	-142.5668945		theme_park.dungeon.generic_death			600	int:ai.defaultCalmBehavior=2					
mutant_bark_mite_hatchling		r11	91.11118317	-46.76744461	-142.5668945		theme_park.dungeon.generic_death			600	int:ai.defaultCalmBehavior=2					
mutant_bark_mite_soldier		r11	75.95957947	-46.53578186	-142.4866486		theme_park.dungeon.generic_death			600	int:ai.defaultCalmBehavior=1					
