spawns	name	room	loc_x	loc_y	loc_z	yaw	script	mood	animation_mood	respawn_time	spawn_objvar	special_room	special_room_script	room_objvar	room_objvar_name	room_objvar_value
s	s	s	f	f	f	f	s	s	s	i	s	s	s	s	s	s
imperial_high_colonel		mainhall	0.217722997	2.00999999	4.130060196		theme_park.dungeon.generic_spawner			403	int:ai.defaultCalmBehavior=1					
dark_trooper		mainhall	-6.420492172	1.00999999	-4.916213989		theme_park.dungeon.generic_spawner			612	int:ai.defaultCalmBehavior=1					
dark_trooper		mainhall	10.29587936	1.00999999	10.60629368		theme_park.dungeon.generic_spawner			468	int:ai.defaultCalmBehavior=1					
dark_trooper		mainhall	-10.62574959	1.00999999	9.879142761		theme_park.dungeon.generic_spawner			561	int:ai.defaultCalmBehavior=1					
imperial_first_lieutenant		meeting2	15.46626186	1.00999999	18.10315704		theme_park.dungeon.generic_spawner			561	int:ai.defaultCalmBehavior=1					
imperial_staff_sergeant		meeting1	-17.76496124	1.00999999	16.46646881		theme_park.dungeon.generic_spawner			520	int:ai.defaultCalmBehavior=1					
imperial_major		jailcell1	17.38585091	1.00999999	-20.92014122		theme_park.dungeon.generic_spawner			587	int:ai.defaultCalmBehavior=1					
imperial_private		jailcell2	-11.39881134	1.00999999	-20.08842278		theme_park.dungeon.generic_spawner			468	int:ai.defaultCalmBehavior=2					
imperial_private		jailcell2	-11.39881134	1.00999999	-20.08842278		theme_park.dungeon.generic_spawner			468	int:ai.defaultCalmBehavior=2					
dark_trooper		hall2	-12.17467594	7.00967598	-13.4737711		theme_park.dungeon.generic_spawner			579	int:ai.defaultCalmBehavior=2					
dark_trooper		hall2	-12.17467594	7.00967598	-13.4737711		theme_park.dungeon.generic_spawner			579	int:ai.defaultCalmBehavior=2					
imperial_staff_corporal		storage2	-6.522473335	7.009739876	9.263497353		theme_park.dungeon.generic_spawner			601	int:ai.defaultCalmBehavior=2					
imperial_staff_corporal		storage2	-6.522473335	7.009739876	9.263497353		theme_park.dungeon.generic_spawner			601	int:ai.defaultCalmBehavior=2					
dark_trooper		foyer2	10.41172028	7.010000229	10.42786694		theme_park.dungeon.generic_spawner			543	int:ai.defaultCalmBehavior=2					
dark_trooper		foyer2	10.41172028	7.010000229	10.42786694		theme_park.dungeon.generic_spawner			543	int:ai.defaultCalmBehavior=2					
