spawns	name	room	loc_x	loc_y	loc_z	yaw	script	mood	animation_mood	respawn_time	spawn_objvar	special_room	special_room_script	room_objvar	room_objvar_name	room_objvar_value
s	s	s	f	f	f	f	s	s	s	i	s	s	s	s	s	s
stormtrooper_squad_leader		mainhall	0.006927438	0.125265002	-4.834097385		theme_park.dungeon.generic_spawner			312	int:ai.defaultCalmBehavior=1					
stormtrooper		room1	4.026690006	0.125266001	2.118536949		theme_park.dungeon.generic_spawner			342	int:ai.defaultCalmBehavior=1					
