objid	container	server_template_crc	cell_index	px	py	pz	qw	qx	qy	qz	scripts	objvars
i	i	h	i	f	f	f	f	f	f	f	s	p
2975374	0	object/static/structure/general/skeleton_human_headandbody.iff	0	1659.08	80.1501	1261.78	1	0	0	0		$|
2975375	0	object/static/structure/general/skeleton_human_headandbody.iff	0	1679.56	88.4984	1263.32	-0.161009	-0.658877	-0.122313	0.724566		$|
2975376	0	object/static/structure/general/banner_imperial_style_01.iff	0	1648.61	76.6903	1261.17	0.649118	0.540775	-0.373339	0.383179		$|
5685462	0	object/static/structure/general/trash_pile_s01.iff	0	1643.7	84.6422	1272.35	0.879969	-0.475032	0	0		$|
5685463	0	object/static/structure/general/trash_pile_s01.iff	0	1631.19	79.7089	1264.5	1	0	0	0		$|
5685464	0	object/static/structure/general/trash_pile_s01.iff	0	1657.5	80.7376	1256.91	1	0	0	0		$|
5685465	0	object/static/structure/general/prp_junk_s6.iff	0	1625.36	86.7213	1276.96	0.893822	0.448423	0	0		$|
5685466	0	object/static/structure/general/prp_junk_s8.iff	0	1668.56	84.9492	1260.25	0.256328	0.292721	-0.482841	0.784522		$|
5685467	0	object/static/structure/tatooine/debris_tatt_drum_dented_1.iff	0	1660.38	81.7473	1266.5	0.764843	0	0	0.644217		$|
5685468	0	object/static/structure/tatooine/debris_tatt_drum_dented_1.iff	0	1661.67	81.3012	1265.23	0.946042	0	0	-0.324043		$|
7806088	0	object/static/particle/particle_newbie_steam.iff	0	178.576	91.969	238.382	1	0	0	0		$|
8195864	0	object/static/structure/general/tato_cave_stalagmite_small.iff	0	118.348	60.639	296.4	0.130576	0	0.991438	0		$|
8195865	0	object/static/structure/general/tato_cave_stalagmite_small.iff	0	142.198	60.5459	295.944	0.728271	0	-0.685289	0		$|
8195866	0	object/static/structure/general/tato_cave_stalagmite_small.iff	0	141.767	60.8509	274.163	1	0	0	0		$|
8195867	0	object/static/structure/general/tato_cave_stalagmite_small.iff	0	116.611	60.2947	273.601	0.685868	0	0.727726	0		$|
8195869	0	object/static/structure/general/tato_cave_stalagmite_small.iff	0	130.497	60.4676	302.041	-0.385543	0	0.92269	0		$|
8195870	0	object/static/structure/general/tato_cave_stalagmite_small.iff	0	111.121	60.2726	285.868	0.351591	0	0.936154	0		$|
8195871	0	object/static/structure/general/tato_cave_stalagmite_small.iff	0	130.376	60.6893	267.858	0.921061	0	0.389418	0		$|
8195872	0	object/static/structure/general/tato_cave_stalagmite_small.iff	0	130.119	54.1043	285.364	1	0	0	0		$|
8195873	0	object/static/structure/general/tato_cave_stalagmite_small.iff	0	130.284	57.4344	296.997	1	0	0	0		$|
8195874	0	object/static/structure/general/tato_cave_stalagmite_small.iff	0	130.21	54.8594	291.504	1	0	0	0		$|
8335379	0	object/static/structure/general/skeleton_human_head.iff	0	152.19	76.8654	245.42	0.995953	0	-0.0898786	0		$|
8335381	0	object/static/structure/general/skeleton_human_head.iff	0	151.96	76.8616	245.384	0.995953	0	-0.0898786	0		$|
8335382	0	object/static/structure/general/skeleton_human_head.iff	0	152.39	76.8339	245.424	0.995953	0	-0.0898786	0		$|
8335383	0	object/static/structure/general/skeleton_human_head.iff	0	152.311	76.9667	245.409	0.995953	0	-0.0898786	0		$|
8335384	0	object/static/structure/general/skeleton_human_head.iff	0	152.083	76.9647	245.394	0.995953	0	-0.0898786	0		$|
8335385	0	object/static/structure/general/skeleton_human_head.iff	0	152.203	77.0964	245.409	0.995953	0	-0.0898786	0		$|
8335387	0	object/static/structure/dantooine/dant_boundary_post.iff	0	152.336	76.2146	244.708	0.9992	0	-0.0399893	0		$|
9025411	0	object/building/military/military_base_shed_imperial_style_01.iff	0	1642.86	76.4798	1251.51	1	0	0	0		$|
9025412	9025411	object/cell/cell.iff	1	0	0	0	1	1.401298E-45	0	0		$|
9025413	9025411	object/cell/cell.iff	2	0	0	0	1	2.802597E-45	0	0		$|
9025414	9025411	object/cell/cell.iff	3	0	0	0	1	4.203895E-45	0	0		$|
9025415	9025411	object/cell/cell.iff	4	0	0	0	1	5.605194E-45	0	0		$|
9025416	9025411	object/cell/cell.iff	5	0	0	0	1	7.006492E-45	0	0		$|
9025417	9025411	object/cell/cell.iff	6	0	0	0	1	8.407791E-45	0	0		$|
9025443	0	object/static/structure/military/military_column_weak_imperial_style_01.iff	0	1680.27	91.0523	1248.79	0.993395	0	-0.114747	0		$|
9025444	0	object/static/structure/corellia/corl_power_arial_prime.iff	0	1647.6	80.6647	1255.95	0.91484	-0.378939	-0.0534008	-0.128921		$|
9025445	0	object/static/structure/corellia/corl_power_arial_thin.iff	0	1645.92	79.653	1253.74	0.99639	0	0	0.0848976		$|
9025446	0	object/static/structure/military/military_column_weak_imperial_style_01.iff	0	1682.39	91.1203	1271.84	1	0	0	0		$|
9025453	0	object/static/structure/corellia/corl_imprv_wall_4x16_s03.iff	0	1674.86	90.9535	1275.55	0.973666	0	0.227978	0		$|
9025454	0	object/static/structure/military/military_column_weak_imperial_style_01.iff	0	1667.65	91.0607	1279.14	1	0	0	0		$|
9025455	0	object/static/structure/corellia/corl_imprv_wall_4x16_s03.iff	0	1659.33	90.9359	1279.59	0.999687	0	0.0249978	0		$|
9025456	0	object/static/structure/military/military_column_weak_imperial_style_01.iff	0	1651.07	90.9781	1280.03	1	0	0	0		$|
9025457	0	object/static/structure/corellia/corl_imprv_wall_4x16_s03.iff	0	1643.57	90.8918	1282.32	0.989506	0	0.144493	0		$|
9025458	0	object/static/structure/corellia/corl_imprv_wall_4x16_s03.iff	0	1627.62	90.9468	1285.12	0.999388	0	0.0349934	0		$|
9025459	0	object/static/structure/military/military_column_weak_imperial_style_01.iff	0	1635.44	91.1562	1284.53	0.993956	0	-0.109778	0		$|
9025460	0	object/static/structure/corellia/corl_imprv_wall_4x16_s03.iff	0	1615.25	90.936	1278.76	0.865324	0	-0.501212	0		$|
9025461	0	object/static/structure/military/military_column_weak_imperial_style_01.iff	0	1619.19	91.0453	1285.54	0.783822	0	-0.620986	0		$|
9025462	0	object/static/structure/military/military_column_weak_imperial_style_01.iff	0	1611.19	90.8276	1271.77	0.783823	0	-0.620984	0		$|
9025463	0	object/static/structure/corellia/corl_imprv_wall_4x16_s03.iff	0	1615.04	90.9799	1264.44	-0.5191	0	0.854713	0		$|
9025464	0	object/static/structure/military/military_column_weak_imperial_style_01.iff	0	1618.73	91.0097	1257.25	-0.390154	0	0.92075	0		$|
9025465	0	object/static/structure/corellia/corl_imprv_wall_4x16_s03.iff	0	1625.39	91.0195	1252.1	-0.320065	0	0.947395	0		$|
9025466	0	object/static/structure/military/military_column_weak_imperial_style_01.iff	0	1631.79	91.1834	1247.17	-0.179815	0	0.983701	0		$|
9025467	0	object/static/structure/corellia/corl_imprv_wall_4x16_s03.iff	0	1639.99	90.9779	1246.1	-0.065751	0	0.997836	0		$|
9025468	0	object/static/structure/military/military_column_weak_imperial_style_01.iff	0	1647.99	91.1795	1245	0.0791193	0	0.996866	0		$|
9025469	0	object/static/structure/corellia/corl_imprv_wall_4x16_s03.iff	0	1656.3	91.03	1244.93	-0.000798619	0	0.999999	0		$|
9025470	0	object/static/structure/military/military_column_weak_imperial_style_01.iff	0	1664.38	91.2046	1244.87	0.143703	0	0.989621	0		$|
9025471	0	object/static/structure/corellia/corl_imprv_wall_4x16_s03.iff	0	1672.03	90.9057	1246.75	0.118919	0	0.992903	0		$|
9685989	0	object/static/structure/military/military_column_weak_imperial_style_01.iff	0	1639.18	76.5607	1260.04	0.82678	0.0790245	0.274816	-0.484424		$|
9685990	0	object/static/structure/military/military_column_weak_imperial_style_01.iff	0	1643.78	75.5007	1259.64	1	0	0	0		$|
