strItemType	comments
s	s
item_tcg_loot_reward_series1_greeter_bomarr_monk	Employment Terminal: B'omarr Monk Greeter
item_tcg_loot_reward_series1_greeter_ewok	Employment Terminal: Ewok Greeter
item_tcg_loot_reward_series1_greeter_gungan	Employment Terminal: Gungan Greeter
item_tcg_loot_reward_series1_greeter_jawa	Employment Terminal: Jawa Greeter
item_tcg_loot_reward_series1_greeter_meatlump	Employment Terminal: Meatlump Greeter
item_tcg_loot_reward_series1_greeter_serving_droid	Employment Terminal:Serving Droid Greeter
item_tcg_loot_reward_series3_greeter_battle_droid	Employment Terminal: Battle Droid Greeter
item_tcg_loot_reward_series3_greeter_toydarian	Employment Terminal: Toydarian Greeter
item_tcg_loot_reward_series3_greeter_tusken	Employment Terminal: Tusken Raider Greeter
item_tcg_loot_reward_series4_greeter_nightsister	Employment Terminal: Nightsister Greeter
item_tcg_loot_reward_series4_greeter_palowick	Employment Terminal: Pa'lowick Greeter
item_tcg_loot_reward_series5_greeter_royal_guard	Employment Terminal: Royal Guard Greeter
item_tcg_loot_reward_series5_greeter_senate_guard	Employment Terminal: Senate Guard Greeter
