strItemType	comments
s	s
item_tcg_loot_reward_series1_beru_whitesuns_cookbook	Beru Whitesun's Cookbook
item_tcg_loot_reward_series1_housecleaning_kit	Housecleaning Kit
item_tcg_loot_reward_series1_versafunction88_datapad	Versafunction88 Datapad
