spawns	name	required_config	room	loc_x	loc_y	loc_z	yaw	script	mood	animation_mood	respawn_time	spawn_objvar	special_room	special_room_script	room_objvar	room_objvar_name	room_objvar_value
s	s	s[none]	s	f	f	f	f	s	s	s	i	s	s	s	s	s	s
imperial_noncom			mainhall	-0.003995597	0.125265002	-3.547302723		theme_park.dungeon.generic_death			234	int:ai.defaultCalmBehavior=2					
imperial_noncom			mainhall	-0.003995597	0.125265002	-3.547302723		theme_park.dungeon.generic_death			234	int:ai.defaultCalmBehavior=2					
